hybrid_system.vcd
$date
	Fri Oct 03 10:02:35 2025
$end
$version
	Icarus Verilog
$end
$timescale
	1ps
$end
$scope module tb_hybrid_system $end
$var wire 16 ! zero_ops_skipped [15:0] $end
$var wire 16 " total_ops_executed [15:0] $end
$var wire 16 # total_energy_saved [15:0] $end
$var wire 1 $ tile_start $end
$var wire 1 % tile_done $end
$var wire 8 & system_efficiency [7:0] $end
$var wire 1 ' sparsity_optimize_en $end
$var wire 1 ( snr_too_low $end
$var wire 1 ) simultaneous_rows $end
$var wire 64 * row_mask [63:0] $end
$var wire 16 + psum_out [15:0] $end
$var wire 2 , precision_mode [1:0] $end
$var wire 1 - output_valid $end
$var wire 1 . imc_mode $end
$var wire 16 / imc_energy_savings [15:0] $end
$var wire 1 0 done $end
$var wire 8 1 computation_snr [7:0] $end
$var wire 1 2 adaptive_imc_en $end
$var reg 1 3 clk $end
$var reg 11 4 input_addr [10:0] $end
$var reg 8 5 input_data [7:0] $end
$var reg 1 6 input_wr_en $end
$var reg 16 7 last_energy_saved [15:0] $end
$var reg 1 8 last_imc_mode $end
$var reg 1 9 load_weights $end
$var reg 5 : output_addr [4:0] $end
$var reg 1 ; rst_n $end
$var reg 1 < start $end
$var reg 1 = timeout $end
$var reg 11 > weight_addr [10:0] $end
$var reg 8 ? weight_data [7:0] $end
$var reg 3 @ weight_set [2:0] $end
$var reg 1 A weight_wr_en $end
$var integer 32 B i [31:0] $end
$var integer 32 C sparsity_percent [31:0] $end
$var integer 32 D total_ops [31:0] $end
$scope module u_controller $end
$var wire 1 3 clk $end
$var wire 1 ; rst_n $end
$var wire 1 < start $end
$var wire 16 E zero_ops_skipped [15:0] $end
$var wire 16 F total_ops_executed [15:0] $end
$var wire 1 % tile_done $end
$var wire 16 G imc_energy_savings [15:0] $end
$var wire 8 H computation_snr [7:0] $end
$var parameter 32 I SNR_THRESHOLD_HIGH $end
$var parameter 32 J SNR_THRESHOLD_LOW $end
$var parameter 32 K SPARSITY_THRESHOLD $end
$var parameter 32 L S_ADAPT $end
$var parameter 32 M S_ANALYZE $end
$var parameter 32 N S_DIGITAL_COMPUTE $end
$var parameter 32 O S_DONE $end
$var parameter 32 P S_DRAM_STORE $end
$var parameter 32 Q S_IDLE $end
$var parameter 32 R S_IMC_COMPUTE $end
$var parameter 32 S S_LOAD $end
$var reg 1 2 adaptive_imc_en $end
$var reg 8 T average_snr [7:0] $end
$var reg 32 U cycle_count [31:0] $end
$var reg 1 0 done $end
$var reg 1 V dram_accumulate_en $end
$var reg 4 W dram_bank_activate [3:0] $end
$var reg 16 X dram_cmd_addr [15:0] $end
$var reg 2 Y dram_cmd_type [1:0] $end
$var reg 1 Z dram_cmd_valid $end
$var reg 1 [ dram_simultaneous_access $end
$var reg 16 \ dram_write_data [15:0] $end
$var reg 3 ] imc_aggressiveness [2:0] $end
$var reg 1 . imc_mode $end
$var reg 2 ^ precision_mode [1:0] $end
$var reg 64 _ row_mask [63:0] $end
$var reg 1 ) simultaneous_rows $end
$var reg 1 ( snr_too_low $end
$var reg 1 ' sparsity_optimize_en $end
$var reg 4 ` state [3:0] $end
$var reg 8 a system_efficiency [7:0] $end
$var reg 16 b temp_sparsity_ratio [15:0] $end
$var reg 1 $ tile_start $end
$var reg 16 c total_energy_saved [15:0] $end
$var reg 16 d total_executed [15:0] $end
$var reg 16 e total_skipped [15:0] $end
$upscope $end
$scope module u_tile $end
$var wire 1 3 clk $end
$var wire 1 . imc_mode $end
$var wire 11 f input_addr [10:0] $end
$var wire 8 g input_data [7:0] $end
$var wire 1 6 input_wr_en $end
$var wire 1 h input_zero_flag $end
$var wire 1 9 load_weights $end
$var wire 5 i output_addr [4:0] $end
$var wire 64 j row_mask [63:0] $end
$var wire 1 ; rst_n $end
$var wire 1 ) simultaneous_rows $end
$var wire 1 $ start $end
$var wire 11 k weight_addr [10:0] $end
$var wire 8 l weight_data [7:0] $end
$var wire 3 m weight_set [2:0] $end
$var wire 1 A weight_wr_en $end
$var parameter 32 n ACC_WIDTH $end
$var parameter 32 o DATA_WIDTH $end
$var parameter 32 p IN_CHANNELS $end
$var parameter 32 q KERNEL_SIZE $end
$var parameter 32 r OUT_CHANNELS $end
$var parameter 32 s SRAM_COLS $end
$var parameter 32 t SRAM_ROWS $end
$var parameter 32 u S_DIGITAL_COMPUTE $end
$var parameter 32 v S_IDLE $end
$var parameter 32 w S_IMC_COMPUTE $end
$var parameter 32 x S_LOAD_DATA $end
$var parameter 32 y S_OUTPUT $end
$var parameter 32 z TILE_SIZE $end
$var reg 5 { ch_idx [4:0] $end
$var reg 6 | col_idx [5:0] $end
$var reg 8 } computation_snr [7:0] $end
$var reg 1 % done $end
$var reg 16 ~ executed_count [15:0] $end
$var reg 1 !" imc_active $end
$var reg 16 "" imc_energy_savings [15:0] $end
$var reg 3 #" ki [2:0] $end
$var reg 3 $" kj [2:0] $end
$var reg 2 %" oc_idx [1:0] $end
$var reg 1 - output_valid $end
$var reg 16 &" psum_out [15:0] $end
$var reg 6 '" row_idx [5:0] $end
$var reg 16 (" skipped_count [15:0] $end
$var reg 3 )" state [2:0] $end
$var reg 16 *" temp_col_sum [15:0] $end
$var reg 8 +" temp_noise [7:0] $end
$var reg 16 ," temp_product [15:0] $end
$var reg 16 -" total_ops_executed [15:0] $end
$var reg 16 ." zero_ops_skipped [15:0] $end
$var integer 32 /" i [31:0] $end
$var integer 32 0" j [31:0] $end
$var integer 32 1" row [31:0] $end
$upscope $end
$upscope $end
$enddefinitions $end
$comment Show the parameter values. $end
$dumpall
b100000 z
b100 y
b1 x
b10 w
b0 v
b11 u
b1000000 t
b1000000 s
b100 r
b11 q
b10000 p
b1000 o
b10000 n
b1 S
b11 R
b0 Q
b101 P
b111 O
b100 N
b10 M
b110 L
b111100 K
b101000 J
b1010000 I
$end
#0
$dumpvars
bx 1"
b1000000 0"
b1000000 /"
bx ."
bx -"
bx ,"
bx +"
bx *"
b0 )"
b0 ("
b0 '"
bx &"
b0 %"
b0 $"
b0 #"
b0 ""
0!"
b0 ~
b1100100 }
b0 |
b0 {
b0 m
b0 l
b0 k
b0 j
b0 i
zh
b0 g
b0 f
b0 e
b0 d
b0 c
bx b
b0 a
b0 `
b0 _
b10 ^
b100 ]
b0 \
0[
0Z
b0 Y
b0 X
b0 W
0V
b0 U
b1100100 T
b1100100 H
b0 G
bx F
bx E
bx D
bx C
bx B
0A
b0 @
b0 ?
b0 >
x=
0<
0;
b0 :
09
08
b0 7
06
b0 5
b0 4
03
12
b1100100 1
00
b0 /
0.
0-
b10 ,
bx +
b0 *
0)
0(
1'
b0 &
0%
0$
b0 #
bx "
bx !
$end
#5000
13
#10000
03
#15000
13
#20000
03
1;
#25000
13
#30000
03
#35000
13
#40000
03
#45000
13
#50000
03
b0 B
19
#55000
b1 B
b1000 5
b1000 g
b1010 ?
b1010 l
16
1A
13
#60000
03
#65000
b10 B
b0 5
b0 g
b0 ?
b0 l
b1 4
b1 f
b1 >
b1 k
13
#70000
03
#75000
b11 B
b10 4
b10 f
b10 >
b10 k
13
#80000
03
#85000
b100 B
b11 4
b11 f
b11 >
b11 k
13
#90000
03
#95000
b101 B
b1100 5
b1100 g
b100 4
b100 f
b100 >
b100 k
13
#100000
03
#105000
b110 B
b0 5
b0 g
b1111 ?
b1111 l
b101 4
b101 f
b101 >
b101 k
13
#110000
03
#115000
b111 B
b0 ?
b0 l
b110 4
b110 f
b110 >
b110 k
13
#120000
03
#125000
b1000 B
b111 4
b111 f
b111 >
b111 k
13
#130000
03
#135000
b1001 B
b10000 5
b10000 g
b1000 4
b1000 f
b1000 >
b1000 k
13
#140000
03
#145000
b1010 B
b0 5
b0 g
b1001 4
b1001 f
b1001 >
b1001 k
13
#150000
03
#155000
b1011 B
b10100 ?
b10100 l
b1010 4
b1010 f
b1010 >
b1010 k
13
#160000
03
#165000
b1100 B
b0 ?
b0 l
b1011 4
b1011 f
b1011 >
b1011 k
13
#170000
03
#175000
b1101 B
b10100 5
b10100 g
b1100 4
b1100 f
b1100 >
b1100 k
13
#180000
03
#185000
b1110 B
b0 5
b0 g
b1101 4
b1101 f
b1101 >
b1101 k
13
#190000
03
#195000
b1111 B
b1110 4
b1110 f
b1110 >
b1110 k
13
#200000
03
#205000
b10000 B
b11001 ?
b11001 l
b1111 4
b1111 f
b1111 >
b1111 k
13
#210000
03
#215000
b10001 B
b11000 5
b11000 g
b0 ?
b0 l
b10000 4
b10000 f
b10000 >
b10000 k
13
#220000
03
#225000
b10010 B
b0 5
b0 g
b10001 4
b10001 f
b10001 >
b10001 k
13
#230000
03
#235000
b10011 B
b10010 4
b10010 f
b10010 >
b10010 k
13
#240000
03
#245000
b10100 B
b10011 4
b10011 f
b10011 >
b10011 k
13
#250000
03
#255000
b10101 B
b11100 5
b11100 g
b11110 ?
b11110 l
b10100 4
b10100 f
b10100 >
b10100 k
13
#260000
03
#265000
b10110 B
b0 5
b0 g
b0 ?
b0 l
b10101 4
b10101 f
b10101 >
b10101 k
13
#270000
03
#275000
b10111 B
b10110 4
b10110 f
b10110 >
b10110 k
13
#280000
03
#285000
b11000 B
b10111 4
b10111 f
b10111 >
b10111 k
13
#290000
03
#295000
b11001 B
b100000 5
b100000 g
b11000 4
b11000 f
b11000 >
b11000 k
13
#300000
03
#305000
b11010 B
b0 5
b0 g
b100011 ?
b100011 l
b11001 4
b11001 f
b11001 >
b11001 k
13
#310000
03
#315000
b11011 B
b0 ?
b0 l
b11010 4
b11010 f
b11010 >
b11010 k
13
#320000
03
#325000
b11100 B
b11011 4
b11011 f
b11011 >
b11011 k
13
#330000
03
#335000
b11101 B
b100100 5
b100100 g
b11100 4
b11100 f
b11100 >
b11100 k
13
#340000
03
#345000
b11110 B
b0 5
b0 g
b11101 4
b11101 f
b11101 >
b11101 k
13
#350000
03
#355000
b11111 B
b101000 ?
b101000 l
b11110 4
b11110 f
b11110 >
b11110 k
13
#360000
03
#365000
b100000 B
b0 ?
b0 l
b11111 4
b11111 f
b11111 >
b11111 k
13
#370000
03
#375000
09
06
0A
13
#380000
03
#385000
13
#390000
03
#395000
0=
13
0<
